D:\Web Services\Majlis_ORM\src\main\java\com\dmssw\orm\models\MajlisGroupEventImages.java
D:\Web Services\Majlis_ORM\src\main\java\com\dmssw\orm\models\MajlisCmsUsers.java
D:\Web Services\Majlis_ORM\src\main\java\com\dmssw\orm\models\MajlisEventCommentReply.java
D:\Web Services\Majlis_ORM\src\main\java\com\dmssw\orm\controllers\DbCon.java
D:\Web Services\Majlis_ORM\src\main\java\com\dmssw\orm\models\MajlisGroupEventVideos.java
D:\Web Services\Majlis_ORM\src\main\java\com\dmssw\orm\models\MajlisGroup.java
D:\Web Services\Majlis_ORM\src\main\java\com\dmssw\orm\models\MajlisGroupEvent.java
D:\Web Services\Majlis_ORM\src\main\java\com\dmssw\orm\config\HibernateUtil.java
D:\Web Services\Majlis_ORM\src\main\java\com\dmssw\orm\controllers\Generators.java
D:\Web Services\Majlis_ORM\src\main\java\com\dmssw\orm\config\AppParams.java
D:\Web Services\Majlis_ORM\src\main\java\com\dmssw\orm\controllers\ORMConnection.java
D:\Web Services\Majlis_ORM\src\main\java\com\dmssw\orm\models\MajlisCustomReports.java
D:\Web Services\Majlis_ORM\src\main\java\com\dmssw\orm\models\MajlisNotification.java
D:\Web Services\Majlis_ORM\src\main\java\com\dmssw\orm\models\MajlisCategory.java
D:\Web Services\Majlis_ORM\src\main\java\com\dmssw\orm\models\MajlisMdCode.java
D:\Web Services\Majlis_ORM\src\main\java\com\dmssw\orm\models\MajlisEventComment.java
D:\Web Services\Majlis_ORM\src\main\java\com\dmssw\orm\models\MajlisBirthdayTemplate.java
D:\Web Services\Majlis_ORM\src\main\java\com\dmssw\orm\models\MajlisMobileUsers.java
